/thumbnailer/imageio-extensions/imageio/imageio-core/src/test/java/com/twelvemonkeys/imageio/util/ImageReaderAbstractTest.java
/thumbnailer/imageio-extensions/imageio/imageio-core/src/test/java/com/twelvemonkeys/imageio/stream/BufferedImageInputStreamTest.java
/thumbnailer/imageio-extensions/imageio/imageio-core/src/test/java/com/twelvemonkeys/imageio/stream/ByteArrayImageInputStreamTest.java
/thumbnailer/imageio-extensions/imageio/imageio-core/src/test/java/com/twelvemonkeys/imageio/color/UInt32ColorModelTest.java
/thumbnailer/imageio-extensions/imageio/imageio-core/src/test/java/com/twelvemonkeys/imageio/color/ColorSpacesTest.java
/thumbnailer/imageio-extensions/imageio/imageio-core/src/test/java/com/twelvemonkeys/imageio/util/ImageTypeSpecifiersTest.java
/thumbnailer/imageio-extensions/imageio/imageio-core/src/test/java/com/twelvemonkeys/imageio/util/IndexedImageTypeSpecifierTest.java
/thumbnailer/imageio-extensions/imageio/imageio-core/src/test/java/com/twelvemonkeys/imageio/color/DiscreteAlphaIndexColorModelTest.java
/thumbnailer/imageio-extensions/imageio/imageio-core/src/test/java/com/twelvemonkeys/imageio/color/LCMSSanitizerStrategyTest.java
/thumbnailer/imageio-extensions/imageio/imageio-core/src/test/java/com/twelvemonkeys/imageio/spi/ReaderWriterProviderInfoTest.java
/thumbnailer/imageio-extensions/imageio/imageio-core/src/test/java/com/twelvemonkeys/imageio/util/ImageWriterAbstractTest.java
/thumbnailer/imageio-extensions/imageio/imageio-core/src/test/java/com/twelvemonkeys/imageio/spi/ProviderInfoTest.java
/thumbnailer/imageio-extensions/imageio/imageio-core/src/test/java/com/twelvemonkeys/imageio/util/IIOInputStreamAdapterTest.java
/thumbnailer/imageio-extensions/imageio/imageio-core/src/test/java/com/twelvemonkeys/imageio/util/UInt32ImageTypeSpecifierTest.java
/thumbnailer/imageio-extensions/imageio/imageio-core/src/test/java/com/twelvemonkeys/imageio/color/CIELabColorConverterTest.java
/thumbnailer/imageio-extensions/imageio/imageio-core/src/test/java/com/twelvemonkeys/imageio/util/IIOOutputStreamAdapterTest.java
/thumbnailer/imageio-extensions/imageio/imageio-core/src/test/java/com/twelvemonkeys/imageio/ImageReaderBaseTest.java
/thumbnailer/imageio-extensions/imageio/imageio-core/src/test/java/com/twelvemonkeys/imageio/color/KCMSSanitizerStrategyTest.java
/thumbnailer/imageio-extensions/imageio/imageio-core/src/test/java/com/twelvemonkeys/imageio/stream/SubImageInputStreamTest.java
