-------------------------------------------------------------------------------
Test set: com.twelvemonkeys.imageio.color.ColorSpacesTest
-------------------------------------------------------------------------------
Tests run: 18, Failures: 0, Errors: 0, Skipped: 1, Time elapsed: 0.377 s - in com.twelvemonkeys.imageio.color.ColorSpacesTest
