-------------------------------------------------------------------------------
Test set: com.twelvemonkeys.imageio.util.ImageTypeSpecifiersTest
-------------------------------------------------------------------------------
Tests run: 36, Failures: 0, Errors: 0, Skipped: 0, Time elapsed: 0.252 s - in com.twelvemonkeys.imageio.util.ImageTypeSpecifiersTest
