-------------------------------------------------------------------------------
Test set: com.twelvemonkeys.imageio.color.UInt32ColorModelTest
-------------------------------------------------------------------------------
Tests run: 8, Failures: 0, Errors: 0, Skipped: 0, Time elapsed: 0.246 s - in com.twelvemonkeys.imageio.color.UInt32ColorModelTest
