com/twelvemonkeys/util/TimeoutMap$KeyIterator.class
com/twelvemonkeys/util/LinkedMap$KeyIterator.class
com/twelvemonkeys/lang/SystemUtil$1.class
com/twelvemonkeys/util/convert/TimeConverter.class
com/twelvemonkeys/util/CollectionUtil$4.class
com/twelvemonkeys/util/AbstractTokenIterator.class
com/twelvemonkeys/util/BeanMap$Wrapped.class
com/twelvemonkeys/util/service/ServiceRegistry$1Two.class
com/twelvemonkeys/util/NullMap.class
com/twelvemonkeys/util/LinkedMap.class
com/twelvemonkeys/util/BeanMap$BeanSet.class
com/twelvemonkeys/util/service/ServiceRegistry$3.class
com/twelvemonkeys/util/BeanMap$1.class
com/twelvemonkeys/util/convert/MissingTypeException.class
com/twelvemonkeys/util/convert/Converter.class
com/twelvemonkeys/util/LinkedMap$LinkedEntry.class
com/twelvemonkeys/util/TimeFormat.class
com/twelvemonkeys/util/convert/NoAvailableConverterException.class
com/twelvemonkeys/util/WeakWeakMap$1$1$1.class
com/twelvemonkeys/util/CollectionUtil.class
com/twelvemonkeys/util/convert/ConverterImpl.class
com/twelvemonkeys/util/CollectionUtil$1.class
com/twelvemonkeys/lang/Platform.class
com/twelvemonkeys/util/service/ServiceRegistry$CategoryRegistry.class
com/twelvemonkeys/util/AbstractDecoratedMap$EntrySet.class
com/twelvemonkeys/util/BeanMap$BeanEntry$2.class
com/twelvemonkeys/lang/DateUtil.class
com/twelvemonkeys/util/CollectionUtil$2.class
com/twelvemonkeys/util/IgnoreCaseMap.class
com/twelvemonkeys/util/BeanMap$BeanIterator.class
com/twelvemonkeys/util/TimeoutMap$EntryIterator.class
com/twelvemonkeys/util/WeakWeakMap.class
com/twelvemonkeys/util/AbstractDecoratedMap$Values.class
com/twelvemonkeys/util/LinkedSet.class
com/twelvemonkeys/util/service/ServiceRegistry$1Spi.class
com/twelvemonkeys/util/DuplicateHandler$2.class
com/twelvemonkeys/util/service/ServiceRegistry$1.class
com/twelvemonkeys/util/CollectionUtil$3.class
com/twelvemonkeys/util/WeakWeakMap$2.class
com/twelvemonkeys/lang/SystemUtil.class
com/twelvemonkeys/util/service/ServiceConfigurationError.class
com/twelvemonkeys/util/LRUHashMap.class
com/twelvemonkeys/lang/SystemUtil$2.class
com/twelvemonkeys/util/service/ServiceRegistry$1One.class
com/twelvemonkeys/util/TimeoutMap$ValueIterator.class
com/twelvemonkeys/lang/BeanUtil.class
com/twelvemonkeys/util/AbstractDecoratedMap$BasicEntry.class
com/twelvemonkeys/util/StringTokenIterator.class
com/twelvemonkeys/util/AbstractDecoratedMap$KeySet.class
com/twelvemonkeys/util/DuplicateHandler$3.class
com/twelvemonkeys/util/LinkedMap$LinkedMapIterator.class
com/twelvemonkeys/util/LinkedMap$1.class
com/twelvemonkeys/util/regex/WildcardStringParser$WildcardStringParserState.class
com/twelvemonkeys/util/convert/TypeMismathException.class
com/twelvemonkeys/util/WeakWeakMap$1.class
com/twelvemonkeys/util/service/ServiceRegistry$CategoryRegistry$1.class
com/twelvemonkeys/util/DuplicateHandler$4.class
com/twelvemonkeys/util/FilterIterator$Filter.class
com/twelvemonkeys/util/regex/WildcardStringParser.class
com/twelvemonkeys/util/FilterIterator.class
com/twelvemonkeys/util/service/ServiceRegistry.class
com/twelvemonkeys/util/convert/NumberConverter.class
com/twelvemonkeys/util/Visitor.class
com/twelvemonkeys/util/LinkedMap$EntryIterator.class
com/twelvemonkeys/util/DuplicateHandler$1.class
com/twelvemonkeys/util/TextFormatter.class
com/twelvemonkeys/util/TimeoutMap$TimedEntry.class
com/twelvemonkeys/lang/Platform$OperatingSystem.class
com/twelvemonkeys/util/convert/DefaultConverter.class
com/twelvemonkeys/util/DuplicateHandler.class
com/twelvemonkeys/util/WeakWeakMap$1$1.class
com/twelvemonkeys/util/service/ServiceRegistry$2.class
com/twelvemonkeys/util/BeanMap$BeanEntry.class
com/twelvemonkeys/util/convert/DateConverter.class
com/twelvemonkeys/lang/Validate.class
com/twelvemonkeys/util/TimeoutMap.class
com/twelvemonkeys/util/convert/ConversionException.class
com/twelvemonkeys/lang/ReflectUtil.class
com/twelvemonkeys/util/regex/WildcardStringParser$ParsableString.class
com/twelvemonkeys/util/Time.class
com/twelvemonkeys/util/LinkedMap$ValueIterator.class
com/twelvemonkeys/lang/SystemUtil$XMLPropertiesInputStream.class
com/twelvemonkeys/util/CollectionUtil$ArrayIterator.class
com/twelvemonkeys/util/BeanMap$BeanEntry$1.class
com/twelvemonkeys/lang/StringUtil.class
com/twelvemonkeys/util/LRUMap.class
com/twelvemonkeys/util/regex/RegExTokenIterator.class
com/twelvemonkeys/util/TokenIterator.class
com/twelvemonkeys/util/TimeFormatter.class
com/twelvemonkeys/util/TimeoutMap$TimeoutMapIterator.class
com/twelvemonkeys/util/service/RegisterableService.class
com/twelvemonkeys/util/AbstractDecoratedMap.class
com/twelvemonkeys/util/MinutesFormatter.class
com/twelvemonkeys/util/BeanMap.class
com/twelvemonkeys/util/ExpiringMap.class
com/twelvemonkeys/util/CollectionUtil$ReverseComparator.class
com/twelvemonkeys/util/TimeoutMap$1.class
com/twelvemonkeys/util/convert/PropertyConverter.class
com/twelvemonkeys/util/SecondsFormatter.class
com/twelvemonkeys/lang/Platform$Architecture.class
com/twelvemonkeys/util/WeakWeakMap$2$1.class
