-------------------------------------------------------------------------------
Test set: com.twelvemonkeys.io.LittleEndianDataInputStreamTest
-------------------------------------------------------------------------------
Tests run: 7, Failures: 0, Errors: 0, Skipped: 0, Time elapsed: 0.04 s - in com.twelvemonkeys.io.LittleEndianDataInputStreamTest
