-------------------------------------------------------------------------------
Test set: com.twelvemonkeys.io.StringArrayReaderTest
-------------------------------------------------------------------------------
Tests run: 19, Failures: 0, Errors: 0, Skipped: 0, Time elapsed: 0.089 s - in com.twelvemonkeys.io.StringArrayReaderTest
