-------------------------------------------------------------------------------
Test set: com.twelvemonkeys.io.ole2.CompoundDocumentTest
-------------------------------------------------------------------------------
Tests run: 7, Failures: 0, Errors: 0, Skipped: 0, Time elapsed: 0.167 s - in com.twelvemonkeys.io.ole2.CompoundDocumentTest
