<?xml version="1.0" encoding="UTF-8"?>
<testsuite xmlns:xsi="http://www.w3.org/2001/XMLSchema-instance" xsi:noNamespaceSchemaLocation="https://maven.apache.org/surefire/maven-surefire-plugin/xsd/surefire-test-report.xsd" name="com.twelvemonkeys.io.FileCacheSeekableStreamTest" time="0.147" tests="34" errors="0" skipped="0" failures="0">
  <properties>
    <property name="awt.toolkit" value="sun.awt.X11.XToolkit"/>
    <property name="file.encoding.pkg" value="sun.io"/>
    <property name="java.specification.version" value="1.8"/>
    <property name="sun.cpu.isalist" value=""/>
    <property name="sun.jnu.encoding" value="UTF-8"/>
    <property name="java.class.path" value="/root/.m2/repository/org/apache/maven/surefire/surefire-booter/2.22.1/surefire-booter-2.22.1.jar:/root/.m2/repository/org/apache/maven/surefire/surefire-api/2.22.1/surefire-api-2.22.1.jar:/root/.m2/repository/org/apache/maven/surefire/surefire-logger-api/2.22.1/surefire-logger-api-2.22.1.jar:/thumbnailer/imageio-extensions/common/common-io/target/test-classes:/thumbnailer/imageio-extensions/common/common-io/target/classes:/thumbnailer/imageio-extensions/common/common-lang/target/terrygilliam-common-lang-3.5-SNAPSHOT.jar:/thumbnailer/imageio-extensions/common/common-lang/target/terrygilliam-common-lang-3.5-SNAPSHOT-tests.jar:/root/.m2/repository/junit/junit/4.7/junit-4.7.jar:/root/.m2/repository/org/apache/maven/surefire/surefire-junit4/2.22.1/surefire-junit4-2.22.1.jar"/>
    <property name="java.vm.vendor" value="Oracle Corporation"/>
    <property name="sun.arch.data.model" value="64"/>
    <property name="java.vendor.url" value="http://java.oracle.com/"/>
    <property name="user.timezone" value=""/>
    <property name="java.vm.specification.version" value="1.8"/>
    <property name="os.name" value="Linux"/>
    <property name="sun.java.launcher" value="SUN_STANDARD"/>
    <property name="sun.boot.library.path" value="/usr/local/openjdk-8/jre/lib/amd64"/>
    <property name="sun.java.command" value="org.apache.maven.surefire.booter.ForkedBooter /thumbnailer/imageio-extensions/common/common-io/target/surefire 2023-12-27T16-43-11_839-jvmRun1 surefire8774690328230549564tmp surefire_17886975369442967348tmp"/>
    <property name="surefire.test.class.path" value="/thumbnailer/imageio-extensions/common/common-io/target/test-classes:/thumbnailer/imageio-extensions/common/common-io/target/classes:/thumbnailer/imageio-extensions/common/common-lang/target/terrygilliam-common-lang-3.5-SNAPSHOT.jar:/thumbnailer/imageio-extensions/common/common-lang/target/terrygilliam-common-lang-3.5-SNAPSHOT-tests.jar:/root/.m2/repository/junit/junit/4.7/junit-4.7.jar:"/>
    <property name="sun.cpu.endian" value="little"/>
    <property name="user.home" value="/root"/>
    <property name="user.language" value="en"/>
    <property name="java.specification.vendor" value="Oracle Corporation"/>
    <property name="java.home" value="/usr/local/openjdk-8/jre"/>
    <property name="basedir" value="/thumbnailer/imageio-extensions/common/common-io"/>
    <property name="file.separator" value="/"/>
    <property name="line.separator" value="&#10;"/>
    <property name="java.vm.specification.vendor" value="Oracle Corporation"/>
    <property name="java.specification.name" value="Java Platform API Specification"/>
    <property name="java.awt.graphicsenv" value="sun.awt.X11GraphicsEnvironment"/>
    <property name="java.awt.headless" value="true"/>
    <property name="sun.boot.class.path" value="/usr/local/openjdk-8/jre/lib/resources.jar:/usr/local/openjdk-8/jre/lib/rt.jar:/usr/local/openjdk-8/jre/lib/sunrsasign.jar:/usr/local/openjdk-8/jre/lib/jsse.jar:/usr/local/openjdk-8/jre/lib/jce.jar:/usr/local/openjdk-8/jre/lib/charsets.jar:/usr/local/openjdk-8/jre/lib/jfr.jar:/usr/local/openjdk-8/jre/classes"/>
    <property name="sun.management.compiler" value="HotSpot 64-Bit Tiered Compilers"/>
    <property name="java.runtime.version" value="1.8.0_282-b08"/>
    <property name="user.name" value="root"/>
    <property name="path.separator" value=":"/>
    <property name="os.version" value="6.2.0-39-generic"/>
    <property name="java.endorsed.dirs" value="/usr/local/openjdk-8/jre/lib/endorsed"/>
    <property name="java.runtime.name" value="OpenJDK Runtime Environment"/>
    <property name="file.encoding" value="UTF-8"/>
    <property name="java.vm.name" value="OpenJDK 64-Bit Server VM"/>
    <property name="localRepository" value="/root/.m2/repository"/>
    <property name="java.vendor.url.bug" value="http://bugreport.sun.com/bugreport/"/>
    <property name="java.io.tmpdir" value="/tmp"/>
    <property name="java.version" value="1.8.0_282"/>
    <property name="user.dir" value="/thumbnailer/imageio-extensions/common/common-io"/>
    <property name="os.arch" value="amd64"/>
    <property name="java.vm.specification.name" value="Java Virtual Machine Specification"/>
    <property name="java.awt.printerjob" value="sun.print.PSPrinterJob"/>
    <property name="sun.os.patch.level" value="unknown"/>
    <property name="java.library.path" value="/usr/java/packages/lib/amd64:/usr/lib64:/lib64:/lib:/usr/lib"/>
    <property name="java.vm.info" value="mixed mode"/>
    <property name="java.vendor" value="Oracle Corporation"/>
    <property name="java.vm.version" value="25.282-b08"/>
    <property name="java.ext.dirs" value="/usr/local/openjdk-8/jre/lib/ext:/usr/java/packages/lib/ext"/>
    <property name="sun.io.unicode.encoding" value="UnicodeLittle"/>
    <property name="java.class.version" value="52.0"/>
  </properties>
  <testcase name="testFlushBeyondCurrentPos" classname="com.twelvemonkeys.io.FileCacheSeekableStreamTest" time="0.01"/>
  <testcase name="testSeek" classname="com.twelvemonkeys.io.FileCacheSeekableStreamTest" time="0.001"/>
  <testcase name="testSeekFlush" classname="com.twelvemonkeys.io.FileCacheSeekableStreamTest" time="0.005"/>
  <testcase name="testMarkFlushReset" classname="com.twelvemonkeys.io.FileCacheSeekableStreamTest" time="0.002"/>
  <testcase name="testSeekSkipRead" classname="com.twelvemonkeys.io.FileCacheSeekableStreamTest" time="0.002"/>
  <testcase name="testReadResetReadDirectBufferBug" classname="com.twelvemonkeys.io.FileCacheSeekableStreamTest" time="0.005"/>
  <testcase name="testReadAllByteValuesRegression" classname="com.twelvemonkeys.io.FileCacheSeekableStreamTest" time="0.025"/>
  <testcase name="testCloseUnderlyingStream" classname="com.twelvemonkeys.io.FileCacheSeekableStreamTest" time="0.021"/>
  <testcase name="testSeekable" classname="com.twelvemonkeys.io.FileCacheSeekableStreamTest" time="0"/>
  <testcase name="testResetAfterReset" classname="com.twelvemonkeys.io.FileCacheSeekableStreamTest" time="0"/>
  <testcase name="testRead" classname="com.twelvemonkeys.io.FileCacheSeekableStreamTest" time="0"/>
  <testcase name="testAvailable" classname="com.twelvemonkeys.io.FileCacheSeekableStreamTest" time="0"/>
  <testcase name="testReadByteArray" classname="com.twelvemonkeys.io.FileCacheSeekableStreamTest" time="0.004"/>
  <testcase name="testEOF" classname="com.twelvemonkeys.io.FileCacheSeekableStreamTest" time="0"/>
  <testcase name="testMarkResetUnsupported" classname="com.twelvemonkeys.io.FileCacheSeekableStreamTest" time="0.001"/>
  <testcase name="testResetNoMark" classname="com.twelvemonkeys.io.FileCacheSeekableStreamTest" time="0.003"/>
  <testcase name="testMarkReset" classname="com.twelvemonkeys.io.FileCacheSeekableStreamTest" time="0.001"/>
  <testcase name="testResetAfterReadLimit" classname="com.twelvemonkeys.io.FileCacheSeekableStreamTest" time="0"/>
  <testcase name="testSkip" classname="com.twelvemonkeys.io.FileCacheSeekableStreamTest" time="0.001"/>
  <testcase name="testSanityOrdered" classname="com.twelvemonkeys.io.FileCacheSeekableStreamTest" time="0.001"/>
  <testcase name="testSanityOrdered2" classname="com.twelvemonkeys.io.FileCacheSeekableStreamTest" time="0.012"/>
  <testcase name="testSanityNegative" classname="com.twelvemonkeys.io.FileCacheSeekableStreamTest" time="0"/>
  <testcase name="testSanityNegative2" classname="com.twelvemonkeys.io.FileCacheSeekableStreamTest" time="0"/>
  <testcase name="testSanityRandom" classname="com.twelvemonkeys.io.FileCacheSeekableStreamTest" time="0"/>
  <testcase name="testSanityRandom2" classname="com.twelvemonkeys.io.FileCacheSeekableStreamTest" time="0"/>
  <testcase name="testToString" classname="com.twelvemonkeys.io.FileCacheSeekableStreamTest" time="0"/>
  <testcase name="testEqualsHashCode" classname="com.twelvemonkeys.io.FileCacheSeekableStreamTest" time="0"/>
  <testcase name="testObjectEqualsSelf" classname="com.twelvemonkeys.io.FileCacheSeekableStreamTest" time="0.001"/>
  <testcase name="testEqualsNull" classname="com.twelvemonkeys.io.FileCacheSeekableStreamTest" time="0"/>
  <testcase name="testObjectHashCodeEqualsSelfHashCode" classname="com.twelvemonkeys.io.FileCacheSeekableStreamTest" time="0.001"/>
  <testcase name="testObjectHashCodeEqualsContract" classname="com.twelvemonkeys.io.FileCacheSeekableStreamTest" time="0.002"/>
  <testcase name="testClone" classname="com.twelvemonkeys.io.FileCacheSeekableStreamTest" time="0.007"/>
  <testcase name="testSerializeDeserializeThenCompare" classname="com.twelvemonkeys.io.FileCacheSeekableStreamTest" time="0"/>
  <testcase name="testSimpleSerialization" classname="com.twelvemonkeys.io.FileCacheSeekableStreamTest" time="0"/>
</testsuite>