-------------------------------------------------------------------------------
Test set: com.twelvemonkeys.util.BeanMapTest
-------------------------------------------------------------------------------
Tests run: 35, Failures: 0, Errors: 0, Skipped: 0, Time elapsed: 0.184 s - in com.twelvemonkeys.util.BeanMapTest
