-------------------------------------------------------------------------------
Test set: com.twelvemonkeys.util.regex.RegExTokenIteratorTest
-------------------------------------------------------------------------------
Tests run: 11, Failures: 0, Errors: 0, Skipped: 0, Time elapsed: 0.026 s - in com.twelvemonkeys.util.regex.RegExTokenIteratorTest
