-------------------------------------------------------------------------------
Test set: com.twelvemonkeys.util.service.ServiceRegistryTest
-------------------------------------------------------------------------------
Tests run: 25, Failures: 0, Errors: 0, Skipped: 0, Time elapsed: 0.268 s - in com.twelvemonkeys.util.service.ServiceRegistryTest
