-------------------------------------------------------------------------------
Test set: com.twelvemonkeys.util.LRUMapTest
-------------------------------------------------------------------------------
Tests run: 42, Failures: 0, Errors: 0, Skipped: 0, Time elapsed: 0.205 s - in com.twelvemonkeys.util.LRUMapTest
