-------------------------------------------------------------------------------
Test set: com.twelvemonkeys.util.StringTokenIteratorTest
-------------------------------------------------------------------------------
Tests run: 11, Failures: 0, Errors: 0, Skipped: 0, Time elapsed: 0.019 s - in com.twelvemonkeys.util.StringTokenIteratorTest
