-------------------------------------------------------------------------------
Test set: com.twelvemonkeys.lang.BeanUtilTest
-------------------------------------------------------------------------------
Tests run: 7, Failures: 0, Errors: 0, Skipped: 0, Time elapsed: 0.01 s - in com.twelvemonkeys.lang.BeanUtilTest
