-------------------------------------------------------------------------------
Test set: com.twelvemonkeys.image.ResampleOpTest
-------------------------------------------------------------------------------
Tests run: 44, Failures: 0, Errors: 0, Skipped: 1, Time elapsed: 3.335 s - in com.twelvemonkeys.image.ResampleOpTest
